solver,poisson
type,mlmc
seed,10.00000000
random field,LPSmoother: mu 0.000000 sigma 10000.000000
initial mesh,5
tolerance,0.10000000
number of processors,7
total time,36.42497349
QOIs,u(0.5 0.5, 0.5),
E[Q],-0.08609311,
V[Q],0.66473561,
alpha,2.78339608,
beta,7.86988632,
gamma,4.14447084,

number of samples,287,18,10,10,
Ql u(0.5 0.5, 0.5),-0.07009254,-0.01570724,-0.00062471,0.00033138,
Vl u(0.5 0.5, 0.5),0.63209959,0.03261758,0.00001785,0.00000060,
Cl, 0.01128180,0.06912208,0.70315635,21.61906233,

