Memory		CPU
14484.00		11.38%		12:55:47.668
14673.00		11.38%		12:55:47.939
14759.00		11.38%		12:55:48.208
15205.00		11.38%		12:55:48.478
14859.00		11.38%		12:55:48.745
14937.00		11.38%		12:55:49.011
15256.00		11.38%		12:55:49.279
15567.00		11.38%		12:55:49.545
15618.00		11.38%		12:55:49.815
15909.00		11.67%		12:55:50.085
15980.00		11.67%		12:55:50.353
15990.00		11.67%		12:55:50.620
16099.00		11.67%		12:55:50.887
16099.00		11.67%		12:55:51.155
16098.00		11.67%		12:55:51.423
16110.00		11.67%		12:55:51.692
16109.00		11.67%		12:55:51.960
16620.00		11.67%		12:55:52.233
17317.00		11.67%		12:55:52.515
17906.00		11.67%		12:55:52.823
18474.00		11.67%		12:55:53.099
19101.00		11.67%		12:55:53.376
19506.00		11.67%		12:55:53.655
19590.00		11.67%		12:55:53.935
19692.00		11.67%		12:55:54.215
20409.00		11.67%		12:55:54.493
19620.00		11.67%		12:55:54.767
19748.00		11.94%		12:55:55.041
19633.00		11.94%		12:55:55.318
19974.00		11.94%		12:55:55.591
20329.00		11.94%		12:55:55.864
20413.00		11.94%		12:55:56.136
20469.00		11.94%		12:55:56.409
20519.00		11.94%		12:55:56.682
20866.00		11.94%		12:55:56.955
21360.00		11.94%		12:55:57.229
21628.00		11.94%		12:55:57.502
21733.00		11.94%		12:55:57.779
21793.00		11.94%		12:55:58.052
21852.00		11.94%		12:55:58.325
22076.00		11.94%		12:55:58.597
22512.00		11.94%		12:55:58.895
22809.00		11.94%		12:55:59.164
22903.00		11.94%		12:55:59.439
23001.00		11.94%		12:55:59.714
23398.00		12.10%		12:55:59.987
23638.00		12.10%		12:56:00.270
23756.00		12.10%		12:56:00.638
23861.00		12.10%		12:56:01.018
24018.00		12.10%		12:56:01.371
24080.00		12.10%		12:56:01.643
24132.00		12.10%		12:56:01.967
24182.00		12.10%		12:56:02.236
24231.00		12.10%		12:56:02.518
24289.00		12.10%		12:56:02.870
24391.00		12.10%		12:56:03.153
25239.00		12.10%		12:56:03.428
26787.00		12.10%		12:56:03.705
27987.00		12.10%		12:56:03.976
28104.00		12.10%		12:56:04.248
28104.00		12.10%		12:56:04.519
28104.00		12.10%		12:56:04.791
28104.00		12.26%		12:56:05.062
28104.00		12.26%		12:56:05.334
28104.00		12.26%		12:56:05.605
28104.00		12.26%		12:56:05.877
28122.00		12.26%		12:56:06.156
28141.00		12.26%		12:56:06.431
28206.00		12.26%		12:56:06.704
28224.00		12.26%		12:56:06.977
28223.00		12.26%		12:56:07.248
28222.00		12.26%		12:56:07.520
28222.00		12.26%		12:56:07.791
28222.00		12.26%		12:56:08.063
28222.00		12.26%		12:56:08.334
28222.00		12.26%		12:56:08.606
28222.00		12.26%		12:56:08.890
28222.00		12.26%		12:56:09.177
28222.00		12.26%		12:56:09.448
28222.00		12.26%		12:56:09.720
28222.00		12.40%		12:56:09.991
28222.00		12.40%		12:56:10.263
28222.00		12.40%		12:56:10.534
28222.00		12.40%		12:56:10.806
28222.00		12.40%		12:56:11.077
28222.00		12.40%		12:56:11.349
28222.00		12.40%		12:56:11.627
28221.00		12.40%		12:56:11.896
28221.00		12.40%		12:56:12.166
28221.00		12.40%		12:56:12.437
27154.00		12.40%		12:56:12.707
24384.00		12.40%		12:56:12.977
18607.00		12.40%		12:56:13.252
17135.00		12.40%		12:56:13.520
16517.00		12.40%		12:56:13.789
15825.00		12.40%		12:56:14.056
15681.00		12.40%		12:56:14.323
