Memory		CPU
14483.00		9.92%		12:54:51.966
14610.00		9.92%		12:54:52.235
14720.00		9.92%		12:54:52.504
15271.00		9.92%		12:54:52.776
14823.00		9.92%		12:54:53.047
14865.00		9.92%		12:54:53.314
15117.00		9.92%		12:54:53.583
15415.00		9.92%		12:54:53.852
15460.00		9.92%		12:54:54.119
15723.00		9.92%		12:54:54.385
15821.00		9.92%		12:54:54.651
15823.00		9.92%		12:54:54.930
15958.00		10.08%		12:54:55.196
15959.00		10.08%		12:54:55.464
15962.00		10.08%		12:54:55.727
15963.00		10.08%		12:54:55.994
15965.00		10.08%		12:54:56.260
16822.00		10.08%		12:54:56.536
17369.00		10.08%		12:54:56.812
17808.00		10.08%		12:54:57.087
18261.00		10.08%		12:54:57.367
18975.00		10.08%		12:54:57.639
19150.00		10.08%		12:54:57.912
19229.00		10.08%		12:54:58.189
19322.00		10.08%		12:54:58.467
19875.00		10.08%		12:54:58.748
20407.00		10.08%		12:54:59.025
20472.00		10.08%		12:54:59.300
20555.00		10.08%		12:54:59.570
20898.00		10.08%		12:54:59.848
21296.00		10.24%		12:55:00.142
21504.00		10.24%		12:55:00.454
21567.00		10.24%		12:55:00.729
21796.00		10.24%		12:55:01.005
22050.00		10.24%		12:55:01.284
22579.00		10.24%		12:55:01.561
22964.00		10.24%		12:55:01.836
23182.00		10.24%		12:55:02.111
23264.00		10.24%		12:55:02.387
23506.00		10.24%		12:55:02.656
23645.00		10.24%		12:55:02.927
23813.00		10.24%		12:55:03.216
24240.00		10.24%		12:55:03.496
24691.00		10.24%		12:55:03.775
24916.00		10.24%		12:55:04.054
25026.00		10.24%		12:55:04.329
25286.00		10.24%		12:55:04.606
25583.00		10.24%		12:55:04.880
25825.00		10.22%		12:55:05.158
25902.00		10.22%		12:55:05.434
25966.00		10.22%		12:55:05.709
26112.00		10.22%		12:55:05.986
26200.00		10.22%		12:55:06.259
26258.00		10.22%		12:55:06.529
26315.00		10.22%		12:55:06.804
26377.00		10.22%		12:55:07.079
26848.00		10.22%		12:55:07.355
28057.00		10.22%		12:55:07.631
28096.00		10.22%		12:55:07.908
28141.00		10.22%		12:55:08.183
28375.00		10.22%		12:55:08.464
31117.00		10.22%		12:55:08.742
31341.00		10.22%		12:55:09.018
31341.00		10.22%		12:55:09.293
31341.00		10.22%		12:55:09.568
31341.00		10.22%		12:55:09.843
31343.00		10.36%		12:55:10.140
31386.00		10.36%		12:55:10.416
31386.00		10.36%		12:55:10.691
31386.00		10.36%		12:55:10.967
31386.00		10.36%		12:55:11.242
31386.00		10.36%		12:55:11.516
31483.00		10.36%		12:55:11.803
31485.00		10.36%		12:55:12.079
31485.00		10.36%		12:55:12.351
31485.00		10.36%		12:55:12.626
31485.00		10.36%		12:55:12.901
31484.00		10.36%		12:55:13.178
31484.00		10.36%		12:55:13.453
31484.00		10.36%		12:55:13.728
31484.00		10.36%		12:55:14.002
31484.00		10.36%		12:55:14.278
31484.00		10.36%		12:55:14.548
31484.00		10.36%		12:55:14.824
31485.00		10.41%		12:55:15.094
31485.00		10.41%		12:55:15.363
31486.00		10.41%		12:55:15.630
31486.00		10.41%		12:55:15.898
31485.00		10.41%		12:55:16.170
31486.00		10.41%		12:55:16.444
27699.00		10.41%		12:55:16.718
26426.00		10.41%		12:55:16.994
26473.00		10.41%		12:55:17.268
26405.00		10.41%		12:55:17.543
25945.00		10.41%		12:55:17.817
25945.00		10.41%		12:55:18.092
25944.00		10.41%		12:55:18.366
25139.00		10.41%		12:55:18.636
15623.00		10.41%		12:55:18.906
15846.00		10.41%		12:55:19.176
16061.00		10.41%		12:55:19.442
14862.00		10.41%		12:55:19.708
